Homework 5
…
## Warning: Expected 4 pieces. Additional pieces discarded in 48250 rows [16, 20,
## 42, 43, 44, 50, 51, 53, 54, 66, 67, 76, 79, 80, 81, 83, 85, 86, 87, 88, ...].

df <- df %>% separate(Date, into = c('Month', 'Day','Year'), sep = '/')
df$latitude <-as.numeric(df$latitude)
df$longitude <- as.numeric(df$longitude)
df$Month <- as.numeric(df$Month)
df$Day <- as.numeric(df$Day)
df$Year <- as.numeric(df$Year)

df

## # A tibble: 63,103 x 27
##    `Invoice/Item N Month   Day  Year `Store Number` `Store Name` Address City 
##    <chr>            <dbl> <dbl> <dbl>          <dbl> <chr>        <chr>   <chr>
##  1 INV-16712000040      1     3  2019           2500 Hy-Vee Food 3800 W Ames 
##  2 INV-16712000012      1     3  2019           2500 Hy-Vee Food 3800 W Ames 
##  3 INV-16712000070      1     3  2019           2500 Hy-Vee Food 3800 W Ames 
##  4 INV-16712000009      1     3  2019           2500 Hy-Vee Food 3800 W Ames 
##  5 INV-16712000160      1     3  2019           2500 Hy-Vee Food 3800 W Ames 
##  6 INV-16712000119      1     3  2019           2500 Hy-Vee Food 3800 W Ames 
##  7 INV-16712000153      1     3  2019           2500 Hy-Vee Food 3800 W Ames 
##  8 INV-16712000114      1     3  2019           2500 Hy-Vee Food 3800 W Ames 
##  9 INV-16834400018      1     9  2019           4251 AJ's Liquor 4518 M Ames 
## 10 INV-16834600031      1     9  2019           2500 Hy-Vee Food 3800 W Ames 
## #  with 63,093 more rows, and 19 more variables: `Zip Code` <dbl>,
## #   latitude <dbl>, longitude <dbl>, `County Number` <dbl>, County <chr>,
## #   Category <dbl>, `Category Name` <chr>, `Vendor Number` <chr>, `Vendor
## #   Name` <chr>, `Item Number` <dbl>, `Item Description` <chr>, Pack <dbl>,
## #   `Bottle Volume (ml)` <dbl>, `State Bottle Cost` <dbl>, `State Bottle
## #   Retail` <dbl>, `Bottles Sold` <dbl>, `Sale (Dollars)` <dbl>, `Volume Sold
## #   (Liters)` <dbl>, `Volume Sold (Gallons)` <dbl>
…
vol <- df %>% group_by(Day, Month, Year) %>% filter(Year == 2019, City == 'Ames') %>% summarize(num_Sales = n(), `volume (Liters)` = sum(`Volume Sold (Liters)`), `money_spent (Dollars)` = sum(`Sale (Dollars)`))
vol

## # A tibble: 157 x 6
## # Groups:   Day, Month [157]
##      Day Month  Year num_Sales `volume (Liters)` `money_spent (Dollars)`
##    <dbl> <dbl> <dbl>     <int>             <dbl>                   <dbl>
##  1     1     2  2019       137             1263.                 19438. 
##  2     1     3  2019       179             1557.                 22531. 
##  3     1     5  2019       118             2115.                 31963. 
##  4     1     8  2019       552             2728.                 44361. 
##  5     1    10  2019        26              186                   3526. 
##  6     1    11  2019        44              652.                  6512. 
##  7     2     5  2019      1173             8585.                132643. 
##  8     2     7  2019         1                1                     18.8
##  9     2     8  2019        57              249.                  4046. 
## 10     2    10  2019       441             4288.                 65284. 
## #  with 147 more rows
…
